{
    "name": "{{name}}",
    "type": "equip",
    "img" : "{{img}}",
    "data": {
        "etype": "armor",
        "bonus": {
            "mob": {{ajuste}}
        },
        "info": {
            "res": {{res}},
            "esqmax": {{esq}},
            "vigreq": {{vig}},
            "quality": {{quality}},
            "desc": "{{descr}}"
        },
        "resources": {
            "rd": {
                "value": {{rd}},
                "max": {{rd}}
            }
        },

        "quantity": 1,
        "weight": {{weight}},
        "price": {{price}},
        "equipped": false,
        "rarity": "{{rarity}}",
        "identified": true
    }
}
